1,1,1,1,1,1,1,1,1,1
1,2,8,0,0,3,1,0,0,1
1,1,0,1,1,1,1,0,1,1
1,0,0,1,3,1,1,0,1,1
1,1,7,0,0,0,0,0,0,1
1,1,0,1,1,1,1,1,0,1
1,0,0,1,1,6,1,1,1,1
1,1,0,1,1,0,1,1,1,1
1,1,0,3,0,0,0,1,1,1
1,1,1,1,1,1,1,1,1,1
1,1,1,1,1,1,1,1,1,1,1,1
1,0,0,0,0,0,1,1,1,1,1,1
1,0,1,0,1,1,1,1,1,1,1,1
1,0,0,0,1,1,1,1,1,2,1,1
1,1,1,3,0,1,1,0,1,0,1,1
1,3,0,0,0,0,0,0,0,4,1,1
1,1,0,1,1,0,1,1,1,0,1,1
1,1,0,1,1,0,1,1,1,1,1,1
1,1,0,1,1,0,1,1,1,1,1,1
1,1,0,1,1,1,1,3,0,1,1,1
1,1,0,0,0,0,0,0,0,0,6,1
1,1,1,1,1,1,1,1,1,1,1,1
1,1,1,1,1,1,1,1,1,1,1,1
1,5,1,1,1,1,1,1,0,1,3,1
1,0,1,1,0,0,0,0,0,0,4,1
1,0,1,1,3,1,1,1,1,1,1,1
1,0,1,1,0,1,1,1,0,1,1,1
1,0,0,0,0,0,1,1,0,1,1,1
1,0,1,1,1,0,1,1,0,1,1,1
1,0,1,1,1,0,1,1,3,1,1,1
1,0,1,1,0,0,0,0,0,1,1,1
1,0,0,3,1,1,1,1,0,0,0,1
1,2,1,1,1,6,0,0,0,1,1,1
1,1,1,1,1,1,1,1,1,1,1,1
1,1,1,1,1,1,1,1,1,1,1,1,1,1,1
1,2,1,1,1,1,1,1,1,1,1,1,1,1,1
1,0,0,0,0,0,0,0,0,0,0,0,0,0,1
1,1,1,1,1,1,1,1,1,1,1,1,1,0,1
1,0,0,0,0,5,0,0,4,0,0,0,0,0,1
1,0,1,1,1,0,1,1,1,1,1,0,1,1,1
1,0,1,3,0,0,1,0,3,0,0,0,0,0,1
1,3,1,0,1,0,1,0,1,1,1,1,1,0,1
1,4,0,8,0,0,1,0,1,1,1,1,1,0,1
1,0,1,1,0,1,1,0,3,0,0,1,1,0,1
1,0,1,1,0,1,1,1,1,1,0,0,0,3,1
1,0,1,1,0,0,0,0,0,0,0,1,1,1,1
1,0,0,0,0,1,1,1,1,0,1,1,1,1,1
1,3,1,1,1,1,1,1,1,0,0,0,6,1,1
1,1,1,1,1,1,1,1,1,1,1,1,1,1,1
1,1,1,1,1,1,1,1,1,1,1
1,2,1,3,1,1,1,3,1,5,1
0,0,1,5,1,3,1,5,1,0,1
1,0,1,0,0,0,1,0,0,0,1
1,0,1,0,1,0,1,0,1,0,1
1,0,0,0,1,0,0,0,1,0,1
1,3,1,0,1,0,1,3,1,0,1
1,0,1,0,1,5,1,1,1,0,1
1,5,0,0,1,1,1,1,1,3,1
1,1,1,1,1,1,1,6,0,0,1
1,1,1,1,1,1,1,1,1,1,1
1,1,1,1,1,1,1,1,1,1,1,1,1,1
1,0,0,0,0,0,0,0,0,5,0,0,0,1
1,2,1,1,1,1,1,1,1,0,1,1,0,1
1,1,0,0,0,0,0,0,3,0,1,1,0,1
1,1,1,0,1,1,1,1,1,0,1,1,0,1
1,0,0,0,1,0,0,0,1,0,1,1,0,1
1,0,1,1,1,0,1,0,1,3,1,3,0,1
1,0,1,1,1,0,1,0,1,0,1,1,0,1
1,3,1,6,0,0,1,0,1,0,1,1,0,1
1,0,1,1,0,1,1,0,1,0,1,1,0,1
1,0,0,0,1,1,0,0,0,0,1,1,0,1
1,1,1,0,1,1,1,0,1,1,3,1,0,1
1,1,3,4,0,0,0,0,0,0,0,0,0,1
1,1,1,1,1,1,1,1,1,1,1,1,1,1
1,1,1,1,1,1,1,1,1,1,1,1,1,1,1,1
1,1,5,0,0,0,0,0,0,0,0,0,1,1,1,1
1,1,0,1,1,1,1,1,1,1,1,0,0,0,1,1
1,1,0,0,0,1,1,1,0,0,1,1,1,0,1,1
1,1,0,1,3,1,1,1,1,0,1,1,1,0,1,1
1,3,0,1,0,0,0,0,0,0,0,1,1,0,1,1
1,1,0,1,0,1,0,1,1,1,1,1,1,0,1,1
1,1,0,1,0,1,1,2,0,0,0,0,0,0,1,1
1,1,0,1,0,1,1,1,1,1,1,1,1,1,1,1
1,1,0,1,4,0,0,0,0,0,0,0,0,0,1,1
1,0,0,1,1,1,1,1,1,1,1,1,0,1,1,1
1,1,0,0,0,0,0,0,0,0,0,0,0,1,1,1
1,1,0,1,0,1,1,1,1,1,1,3,1,1,1,1
1,3,1,1,0,0,0,0,0,0,0,0,1,0,1,1
1,0,0,0,0,1,1,1,1,1,0,0,0,0,6,1
1,1,1,1,1,1,1,1,1,1,1,1,1,1,1,1
1,1,1,1,1,1,1,1,1,1,1,1,1,1,1,1
1,0,0,0,0,0,0,0,0,0,0,1,1,1,2,1
1,0,1,1,1,1,1,0,1,1,0,1,1,0,0,1
1,0,1,1,0,0,0,0,1,1,0,1,1,0,1,1
1,0,1,3,0,1,1,0,0,0,0,1,0,0,1,1
1,0,1,1,1,1,1,1,1,1,1,1,0,1,1,1
1,0,0,0,0,0,0,0,0,0,0,0,0,5,1,1
1,1,1,1,1,1,1,1,1,1,1,1,1,0,1,1
1,0,0,4,0,0,0,0,0,0,1,1,1,0,1,1
1,0,1,1,1,0,1,1,1,6,1,1,1,0,1,1
1,0,1,1,1,1,1,1,1,1,1,3,1,0,1,1
1,0,1,1,0,0,0,0,0,0,0,0,0,0,1,1
1,3,0,0,0,1,0,1,1,1,1,1,1,0,1,1
1,1,0,1,0,0,0,1,1,4,0,0,0,0,1,1
1,3,0,1,1,1,0,0,0,0,1,0,0,0,1,1
1,1,1,1,1,1,1,1,1,1,1,1,1,1,1,1
1,1,1,1,1,1,1,1,1,1,1,1,1,1,1,1,1,1
1,6,5,1,0,0,0,0,0,0,0,0,0,0,0,0,0,1
1,1,0,1,0,1,1,1,1,1,1,1,1,0,1,1,0,1
1,1,0,1,0,1,1,0,0,0,0,0,0,0,0,1,0,1
1,3,0,1,0,1,1,0,1,1,1,1,1,1,0,1,0,1
1,1,0,1,0,1,1,0,1,0,0,0,0,1,0,1,0,1
1,1,0,0,0,1,1,0,1,0,1,1,0,1,0,1,0,1
1,1,1,0,1,1,1,0,1,0,1,1,0,1,0,1,0,1
1,1,1,0,1,1,1,0,1,2,1,1,0,1,0,1,0,1
1,3,0,0,1,1,1,0,1,1,1,1,0,1,0,1,0,1
1,1,1,0,0,0,0,0,0,0,0,0,0,1,0,1,0,1
1,1,1,0,1,1,1,1,1,1,1,1,1,1,0,1,0,1
1,1,0,0,0,0,0,0,0,0,0,0,0,0,0,1,0,1
1,1,0,1,1,1,1,1,0,1,1,1,1,1,1,1,0,1
1,1,0,1,3,0,0,1,0,1,1,1,1,1,1,1,0,1
1,1,0,1,1,1,4,0,0,0,0,0,0,3,0,0,0,1
1,0,0,0,0,0,0,1,1,1,1,0,1,1,1,1,1,1
1,1,1,1,1,1,1,1,1,1,1,1,1,1,1,1,1,1
1,1,1,1,1,1,1,1,1,1,1,1,1,1,1,1,1,1,1,1
1,2,1,6,0,0,1,1,1,1,1,1,1,1,1,1,1,1,1,1
1,0,1,1,1,0,0,0,0,0,0,0,0,0,0,0,0,0,5,1
1,0,1,1,3,1,1,1,1,1,1,1,1,1,1,1,1,1,0,1
1,0,1,1,0,0,0,0,0,0,0,0,0,0,0,0,0,0,4,1
1,0,1,1,0,1,1,1,1,0,1,1,1,0,1,1,1,1,0,1
1,0,1,1,0,1,1,1,1,0,1,0,1,0,1,0,0,1,0,1
1,0,1,1,0,1,1,1,1,0,1,0,1,0,1,1,0,1,0,1
1,0,1,3,0,0,0,5,1,3,1,0,1,1,1,1,0,1,0,1
1,0,1,1,0,1,1,0,1,0,1,0,0,0,1,1,0,1,0,1
1,0,1,1,0,1,3,0,1,0,1,1,1,0,0,0,0,0,0,1
1,0,1,1,1,1,1,0,1,0,0,0,1,1,1,0,1,1,0,1
1,0,0,0,1,1,1,0,1,1,1,0,1,1,1,1,1,1,0,1
1,0,1,0,0,0,0,0,0,1,1,0,0,0,0,3,0,0,4,1
1,0,1,0,1,1,1,1,0,1,1,0,1,1,1,1,1,1,0,1
1,0,1,0,0,0,3,0,0,1,1,0,1,1,1,1,1,0,0,1
1,0,1,0,1,1,1,1,0,1,1,3,1,1,3,0,0,1,0,1
1,0,1,0,1,1,1,1,0,1,1,1,1,1,1,1,0,1,0,1
1,0,0,0,0,0,0,0,4,0,0,0,0,0,0,0,0,0,0,1
1,1,1,1,1,1,1,1,1,1,1,1,1,1,1,1,1,1,1,1
